{
    "sys": {
        "type": "Array"
    },
    "total": 1,
    "skip": 0,
    "limit": 1000,
    "items": [
        {
            "code": "en-US",
            "name": "English (United States)",
            "default": true,
            "fallbackCode": null,
            "sys": {
                "id": "3Q1I9DWKb9lKXUlXRG6Z2e",
                "type": "Locale",
                "version": 1
            }
        }
    ]
}
